20

1
3
-1
-1
1
8
-1
6
5

3
3
3
3
4
5
-3
-2
-1
6
8

30
-1
5
2
8
6
-1
-1
-1

9
9
7
-2
-1
5
4
-1
6
6
1

3
4
1
-1
-1

111
3
-1
-1

6
8
9
5
4
-4
-1
5
3

10
97
-2
-1
6
16
-1
-1

3
3
-1
-1
9
-1
4
5
3

29
10
-2
56
-1
9
5
3
4
-1
-1
-1

5
4
3
2
1
-1
-2
8
7
6
5

1
1
1
1
1
1
1
1
1
-1
-1
-1
-1
-1
-1

10
11
12
13
14
-3
-2
-1
5

90
-1
18
-1
32
23
-2
-1

3
4
5
6
1
9
-4
-3
-1
-1

9
8
-2
1
4
5
6
7
3
14
8
5
9
34
-1
-5
-1
-1
-1
8

2
1
-2
-1
6
5
5
5
-1

8
5
4
-3
-1
7
5
4
8
9
5

2
3
1
9
-4
-1

1
3
1
9
6
6
-1
-3
-1
2
1
