20

5
10
-1

5
10
-1
-1
10
5
-1

3
3
3
3
-1
-2
3
3

3
3
3
3
-1
-2
1
1

3
6
4
9
-3
-3
10

8
4
1
6
-1
-2
-1

5
1
6
-2
-1
2
1

2
1
6
3
8
-5
-4
10

5
4
3
2
1
-5
-4
-3
-2
9

5
8
-1
4
8
-2
8
-2
6

1
7
3
1
9
5
8
8
-8
-6
-4
-2
-1
1
1
1
1
1

7
3
3
7
-2
-2
6
-1
5

9
6
-1
4
1
-1
2
-1
-1
3
3
3

5
1
-1
2
1
-2
-1
2
2
1

8
9
-1
4
5
-1
2
2
-1
1

1
2
3
4
5
-5
-4
-3
-2
-1

1
2
3
4
5
-1
-1
-1
-1
-1

3
5
-2
-1
5
8
-1
-1
8
10
-2
5
5

7
8
2
-3
-2
9
5
2
-1
-2
5
7
1
-2

17
23
-1
5
5
5
-2
-3
10
19
23
