25

2
1
-2
2
13
1
11
7
9
4

15
-1
13
7
-1
-1
12
4
8
13

8
10
15
-2
13
13
3
7
12
8

5
2
5
15
15
13
1
13
8
6

13
-1
13
6
11
4
1
-3
14
6

9
12
13
5
2
6
15
14
-5
-7

12
-1
15
10
6
11
7
-4
12
1

15
3
7
5
14
6
8
15
14
7

1
6
7
2
-3
3
-1
3
8
7

10
10
3
12
14
8
7
13
10
9

15
10
7
15
9
-1
11
6
-3
14

3
8
8
10
-1
2
10
10
4
2

9
-1
8
4
-1
11
12
5
7
5

7
8
2
6
15
9
15
6
7
-2

11
9
-1
11
3
6
-4
-2
12
2

6
9
-2
7
12
7
9
11
11
12

10
4
-2
5
-2
11
8
15
-4
5

15
-1
11
-1
15
14
6
1
1
6

10
11
4
4
12
7
4
12
1
-7

11
9
11
1
11
-3
10
15
6
-1

3
7
13
10
11
6
3
1
-3
-2

12
2
11
15
11
-5
15
-4
1
4

10
5
5
7
12
-1
15
15
-1
7

12
11
12
15
15
7
11
10
1
1

15
1
6
15
9
15
8
7
-6
5
